[
  {
    "name": "name",
    "label": "Name",
    "type": "text",
    "hidden": false,
    "options": []
  },
  {
    "name": "testfield",
    "label": "Company Test Field",
    "type": "text",
    "hidden": false,
    "options": []
  },
  {
    "name": "hiddenfield",
    "label": "Hidden Field",
    "type": "text",
    "hidden": true,
    "options": []
  }
]
