{
  "query": "d",
  "contacts": [
    {
      "vid": 101,
      "properties":
      {
        "lastname": {
          "value": "Lynch"
        },
        "firstname": {
          "value": "David"
        },
        "email": {
          "value": "test@atlassian.com"
        }
      },
      "form-submissions": [],
      "identity-profiles": [
        {
          "identities": [
            {
              "type": "EMAIL",
              "value": "test@atlassian.com"
            }
          ]
        }
      ]
    },
    {
      "vid": 102,
      "properties":
      {
        "lastname": {
          "value": "Yohoho"
        },
        "firstname": {
          "value": "Doo"
        },
        "email": {
          "value": "doo@atlassian.com"
        }
      },
      "form-submissions": [],
      "identity-profiles": [
        {
          "identities": [
            {
              "type": "EMAIL",
              "value": "doo@atlassian.com"
            }
          ]
        }
      ]
    }
  ]
}
