{
  "fields": [
    {
      "label": "Account ID",
      "name": "Id",
      "type": "id"
    },
    {
      "label": "Account Type",
      "name": "Type",
      "type": "picklist"
    },
    {
      "label": "Test Field",
      "name": "TestField1",
      "type": "string"
    }
  ]
}
