{
  "value": [
    {
      "SchemaName": "Account",
      "Attributes": [
        {
          "AttributeType": "Virtual",
          "LogicalName": "nolabelfield",
          "DisplayName": {
            "LocalizedLabels": [],
            "UserLocalizedLabel": null
          }
        },
        {
          "AttributeType": "Lookup",
          "LogicalName": "fieldtoskip",
          "DisplayName": {
            "UserLocalizedLabel": {
              "Label": "Field To Skip"
            }
          }
        },
        {
          "AttributeType": "String",
          "LogicalName": "emailaddress1",
          "DisplayName": {
            "UserLocalizedLabel": {
              "Label": "Email"
            }
          }
        },
        {
          "AttributeType": "String",
          "LogicalName": "fullname",
          "DisplayName": {
            "UserLocalizedLabel": {
              "Label": "Full Name"
            }
          }
        },
        {
          "AttributeType": "String",
          "LogicalName": "accounttestfield",
          "DisplayName": {
            "UserLocalizedLabel": {
              "Label": "Account Test Field"
            }
          }
        }
      ]
    }
  ]
}