[
  {
    "id": "salesforce",
    "name": "Salesforce",
    "logo": "../../img/salesforce-logo.svg",
    "icons": {
      "contact": "../../img/icons/salesforce-contact-icon.svg",
      "account": "../../img/icons/salesforce-account-icon.svg",
      "lead": "../../img/icons/salesforce-lead-icon.svg",
      "opportunity": "../../img/icons/salesforce-opportunity-icon.svg",
      "case": "../../img/icons/salesforce-case-icon.svg",
      "asset": "../../img/icons/salesforce-asset-icon.svg",
      "entitlement": "../../img/icons/salesforce-entitlement-icon.svg"
    }
  },
  {
    "id": "dynamics",
    "name": "Microsoft Dynamics",
    "logo": "../../img/dynamics-logo.png",
    "icons": {
      "contact": "../../img/icons/dynamics-contact-icon.png",
      "account": "../../img/icons/dynamics-account-icon.png",
      "lead": "../../img/icons/dynamics-lead-icon.png",
      "opportunity": "../../img/icons/dynamics-opportunity-icon.png",
      "incident": "../../img/icons/dynamics-case-icon.png"
    }
  },
  {
    "id": "hubspot",
    "name": "HubSpot",
    "logo": "../../img/hubspot-logo.svg",
    "icons": {
      "contact": "../../img/icons/hubspot-contact-icon.svg",
      "company": "../../img/icons/hubspot-company-icon.svg",
      "deal": "../../img/icons/hubspot-deal-icon.svg"
    }
  }
]
